{
  "project_info": {
    "project_number": "535571783954",
    "firebase_url": "https://livetweet-d8ee4-default-rtdb.europe-west1.firebasedatabase.app",
    "project_id": "livetweet-d8ee4",
    "storage_bucket": "livetweet-d8ee4.appspot.com"
  },
  "client": [
    {
      "client_info": {
        "mobilesdk_app_id": "1:535571783954:android:f36d99ef698a5d74b5d3cb",
        "android_client_info": {
          "package_name": "uk.co.libertyapps.tweet"
        }
      },
      "oauth_client": [
        {
          "client_id": "535571783954-6tk9efdr83ebse2eoofmc4dprqf1bm7s.apps.googleusercontent.com",
          "client_type": 3
        }
      ],
      "api_key": [
        {
          "current_key": "AIzaSyC6vDAD_eno98covQpgliNHODgFVFk3hXg"
        }
      ],
      "services": {
        "appinvite_service": {
          "other_platform_oauth_client": [
            {
              "client_id": "535571783954-6tk9efdr83ebse2eoofmc4dprqf1bm7s.apps.googleusercontent.com",
              "client_type": 3
            }
          ]
        }
      }
    }
  ],
  "configuration_version": "1"
}